-------------------------------------------------------------------------------
Test set: students.database.StudentsDatabaseTest
-------------------------------------------------------------------------------
Tests run: 1, Failures: 0, Errors: 0, Skipped: 0, Time elapsed: 0.059 sec
